{
  "tests": "./tests/acceptance/*_test.js",
  "timeout": 10000,
  "output": "./tests/output",
  "helpers": {
    "WebDriverIO": {
      "url": "http://localhost:63342/js101/",
      "browser": "firefox"
    }
  },
  "include": {},
  "bootstrap": false,
  "mocha": {},
  "name": "js101"
}